newmtl view0
Ka 0.6 0.6 0.6
Kd 0.6 0.6 0.60
Ks 0.9 0.9 0.9
d 1.0
Ns 0.0
illum 2
map_Kd view0.jpg
newmtl view1
Ka 0.6 0.6 0.6
Kd 0.6 0.6 0.60
Ks 0.9 0.9 0.9
d 1.0
Ns 0.0
illum 2
map_Kd view1.jpg
newmtl view2
Ka 0.6 0.6 0.6
Kd 0.6 0.6 0.60
Ks 0.9 0.9 0.9
d 1.0
Ns 0.0
illum 2
map_Kd view2.jpg
newmtl view3
Ka 0.6 0.6 0.6
Kd 0.6 0.6 0.60
Ks 0.9 0.9 0.9
d 1.0
Ns 0.0
illum 2
map_Kd view3.jpg
newmtl view4
Ka 0.6 0.6 0.6
Kd 0.6 0.6 0.60
Ks 0.9 0.9 0.9
d 1.0
Ns 0.0
illum 2
map_Kd view4.jpg
newmtl view5
Ka 0.6 0.6 0.6
Kd 0.6 0.6 0.60
Ks 0.9 0.9 0.9
d 1.0
Ns 0.0
illum 2
map_Kd view5.jpg
